<?xml version="1.0" encoding="UTF-8" standalone="no"?>
<svg
   xmlns:dc="http://purl.org/dc/elements/1.1/"
   xmlns:cc="http://creativecommons.org/ns#"
   xmlns:rdf="http://www.w3.org/1999/02/22-rdf-syntax-ns#"
   xmlns:svg="http://www.w3.org/2000/svg"
   xmlns="http://www.w3.org/2000/svg"
   xmlns:sodipodi="http://sodipodi.sourceforge.net/DTD/sodipodi-0.dtd"
   xmlns:inkscape="http://www.inkscape.org/namespaces/inkscape"
   version="1.1"
   id="Layer_1"
   x="0px"
   y="0px"
   viewBox="0 0 232.001 232.001"
   style="enable-background:new 0 0 232.001 232.001;"
   xml:space="preserve"
   sodipodi:docname="game.svg"
   inkscape:version="1.0.2 (e86c8708, 2021-01-15)"><metadata
   id="metadata5034"><rdf:RDF><cc:Work
       rdf:about=""><dc:format>image/svg+xml</dc:format><dc:type
         rdf:resource="http://purl.org/dc/dcmitype/StillImage" /><dc:title></dc:title></cc:Work></rdf:RDF></metadata><defs
   id="defs5032" /><sodipodi:namedview
   pagecolor="#ffffff"
   bordercolor="#666666"
   borderopacity="1"
   objecttolerance="10"
   gridtolerance="10"
   guidetolerance="10"
   inkscape:pageopacity="0"
   inkscape:pageshadow="2"
   inkscape:window-width="1792"
   inkscape:window-height="1120"
   id="namedview5030"
   showgrid="false"
   inkscape:zoom="3.1680897"
   inkscape:cx="116.0005"
   inkscape:cy="116.0005"
   inkscape:window-x="0"
   inkscape:window-y="0"
   inkscape:window-maximized="0"
   inkscape:current-layer="g4995" />
<g
   id="g4997">
	<g
   id="g4995">
		<g
   id="g4993"
   style="fill:#f0688a;fill-opacity:1">
			<path
   d="M220.027,89.373H11.973C5.371,89.373,0,94.75,0,101.362v88.024c0,6.611,5.371,11.988,11.973,11.988h208.055     c6.602,0,11.973-5.377,11.973-11.988v-88.024C232,94.75,226.629,89.373,220.027,89.373z M224,189.385     c0,2.199-1.781,3.988-3.973,3.988H11.973c-2.192,0-3.973-1.789-3.973-3.988v-88.024c0-2.199,1.781-3.988,3.973-3.988h208.055     c2.192,0,3.973,1.789,3.973,3.988L224,189.385z"
   id="path4959"
   style="fill:#f0688a;fill-opacity:1" />
			<path
   d="M20,129.373h16c2.211,0,4-1.791,4-4v-16c0-2.209-1.789-4-4-4H20c-2.211,0-4,1.791-4,4v16     C16,127.582,17.789,129.373,20,129.373z M24,113.373h8v8h-8V113.373z"
   id="path4961"
   style="fill:#f0688a;fill-opacity:1" />
			<path
   d="M52,129.373h16c2.211,0,4-1.791,4-4v-16c0-2.209-1.789-4-4-4H52c-2.211,0-4,1.791-4,4v16     C48,127.582,49.789,129.373,52,129.373z M56,113.373h8v8h-8V113.373z"
   id="path4963"
   style="fill:#f0688a;fill-opacity:1" />
			<path
   d="M60,137.373v16c0,2.209,1.789,4,4,4h16c2.211,0,4-1.791,4-4v-16c0-2.209-1.789-4-4-4H64     C61.789,133.373,60,135.164,60,137.373z M68,141.373h8v8h-8V141.373z"
   id="path4965"
   style="fill:#f0688a;fill-opacity:1" />
			<path
   d="M28,137.373v16c0,2.209,1.789,4,4,4h16c2.211,0,4-1.791,4-4v-16c0-2.209-1.789-4-4-4H32     C29.789,133.373,28,135.164,28,137.373z M36,141.373h8v8h-8V141.373z"
   id="path4967"
   style="fill:#f0688a;fill-opacity:1" />
			<path
   d="M92,137.373v16c0,2.209,1.789,4,4,4h16c2.211,0,4-1.791,4-4v-16c0-2.209-1.789-4-4-4H96     C93.789,133.373,92,135.164,92,137.373z M100,141.373h8v8h-8V141.373z"
   id="path4969"
   style="fill:#f0688a;fill-opacity:1" />
			<path
   d="M36,161.373H20c-2.211,0-4,1.791-4,4v16c0,2.209,1.789,4,4,4h16c2.211,0,4-1.791,4-4v-16     C40,163.164,38.211,161.373,36,161.373z M32,177.373h-8v-8h8V177.373z"
   id="path4971"
   style="fill:#f0688a;fill-opacity:1" />
			<path
   d="M84,129.373h16c2.211,0,4-1.791,4-4v-16c0-2.209-1.789-4-4-4H84c-2.211,0-4,1.791-4,4v16     C80,127.582,81.789,129.373,84,129.373z M88,113.373h8v8h-8V113.373z"
   id="path4973"
   style="fill:#f0688a;fill-opacity:1" />
			<path
   d="M172,105.373h-16c-2.211,0-4,1.791-4,4v16c0,2.209,1.789,4,4,4h16c2.211,0,4-1.791,4-4v-16     C176,107.164,174.211,105.373,172,105.373z M168,121.373h-8v-8h8V121.373z"
   id="path4975"
   style="fill:#f0688a;fill-opacity:1" />
			<path
   d="M172,133.373h-16c-2.211,0-4,1.791-4,4v16c0,2.209,1.789,4,4,4h16c2.211,0,4-1.791,4-4v-16     C176,135.164,174.211,133.373,172,133.373z M168,149.373h-8v-8h8V149.373z"
   id="path4977"
   style="fill:#f0688a;fill-opacity:1" />
			<path
   d="M204,133.373h-16c-2.211,0-4,1.791-4,4v16c0,2.209,1.789,4,4,4h16c2.211,0,4-1.791,4-4v-16     C208,135.164,206.211,133.373,204,133.373z M200,149.373h-8v-8h8V149.373z"
   id="path4979"
   style="fill:#f0688a;fill-opacity:1" />
			<path
   d="M172,161.373h-16c-2.211,0-4,1.791-4,4v16c0,2.209,1.789,4,4,4h16c2.211,0,4-1.791,4-4v-16     C176,163.164,174.211,161.373,172,161.373z M168,177.373h-8v-8h8V177.373z"
   id="path4981"
   style="fill:#f0688a;fill-opacity:1" />
			<path
   d="M204,161.373h-16c-2.211,0-4,1.791-4,4v16c0,2.209,1.789,4,4,4h16c2.211,0,4-1.791,4-4v-16     C208,163.164,206.211,161.373,204,161.373z M200,177.373h-8v-8h8V177.373z"
   id="path4983"
   style="fill:#f0688a;fill-opacity:1" />
			<path
   d="M204,105.373h-16c-2.211,0-4,1.791-4,4v16c0,2.209,1.789,4,4,4h16c2.211,0,4-1.791,4-4v-16     C208,107.164,206.211,105.373,204,105.373z M200,121.373h-8v-8h8V121.373z"
   id="path4985"
   style="fill:#f0688a;fill-opacity:1" />
			<path
   d="M132,161.373H52c-2.211,0-4,1.791-4,4v16c0,2.209,1.789,4,4,4h80c2.211,0,4-1.791,4-4v-16     C136,163.164,134.211,161.373,132,161.373z M128,177.373H56v-8h72V177.373z"
   id="path4987"
   style="fill:#f0688a;fill-opacity:1" />
			<path
   d="M84.887,62.545c-1.562,1.562-1.562,4.094,0,5.656c1.562,1.563,4.094,1.562,5.656,0c14.039-14.035,36.875-14.035,50.914,0     c0.781,0.781,1.805,1.172,2.828,1.172s2.047-0.391,2.828-1.172c1.562-1.562,1.562-4.094,0-5.656     C129.957,45.389,102.043,45.389,84.887,62.545z"
   id="path4989"
   style="fill:#f0688a;fill-opacity:1" />
			<path
   d="M73.574,56.201C84.906,44.869,99.973,38.627,116,38.627c16.027,0,31.094,6.242,42.426,17.574     c0.781,0.781,1.805,1.172,2.828,1.172s2.047-0.391,2.828-1.172c1.562-1.562,1.562-4.094,0-5.656     C151.238,37.701,134.164,30.627,116,30.627s-35.238,7.074-48.082,19.918c-1.562,1.562-1.562,4.094,0,5.656     C69.48,57.764,72.012,57.764,73.574,56.201z"
   id="path4991"
   style="fill:#f0688a;fill-opacity:1" />
		</g>
	</g>
</g>
<g
   id="g4999">
</g>
<g
   id="g5001">
</g>
<g
   id="g5003">
</g>
<g
   id="g5005">
</g>
<g
   id="g5007">
</g>
<g
   id="g5009">
</g>
<g
   id="g5011">
</g>
<g
   id="g5013">
</g>
<g
   id="g5015">
</g>
<g
   id="g5017">
</g>
<g
   id="g5019">
</g>
<g
   id="g5021">
</g>
<g
   id="g5023">
</g>
<g
   id="g5025">
</g>
<g
   id="g5027">
</g>
</svg>
